Bayesian Spline Modelling
…
The data across patients and per treatment and brain location as a function of time (ms).正如你所看到的，有相当多的变化，这种变化可能取决于平均水平。这就是为什么我想评估变异系数(CV ),并查看在哪些地方变异超过了平均值(变异系数计算标准偏差与平均值的比率)。下面，我将通过汇总患者、每次治疗和大脑位置来准备数据。

df_all_diff%>%
  group_by(Time, Treatm, Location)%>%
  summarise(mean = mean(Value), 
            std = sd(Value, na.rm=TRUE),
            cv= std/mean)

`summarise()` has grouped output by 'Time', 'Treatm'. You can
override using the `.groups` argument.
# A tibble: 528 x 6
# Groups:   Time, Treatm [88]
    Time Treatm Location      mean   std     cv
   <dbl> <chr>  <chr>        <dbl> <dbl>  <dbl>
 1  -200 OFF_ON Central   -0.0687  0.573  -8.34
 2  -200 OFF_ON Frontal    0.0756  0.721   9.53
 3  -200 OFF_ON Occipital  0.247   0.842   3.41
 4  -200 OFF_ON Parietal   0.045   0.684  15.2 
 5  -200 OFF_ON TemporalL -0.121   0.469  -3.89
 6  -200 OFF_ON TemporalR -0.0881  0.574  -6.51
 7  -200 ON_OFF Central   -0.0969  0.269  -2.78
 8  -200 ON_OFF Frontal   -0.0225  0.289 -12.9 
 9  -200 ON_OFF Occipital  0.0737  0.440   5.97
10  -200 ON_OFF Parietal   0.00250 0.276 110.  
# ... with 518 more rows
…
